…
    ## 
    ##  Downloading file 1 of 1: `house.csv`

    ## --- Download complete ---

    house <- tuesdata$house

# Explore

Let’s explore today’s data and see what we have! Only instructions this
week are to stay clear of **causation**, fair enough!

    house

    ## # A tibble: 32,452 × 20
    ##     year state   state_po state_fips state_cen state_ic office   district stage
    ##    <dbl> <chr>   <chr>         <dbl>     <dbl>    <dbl> <chr>    <chr>    <chr>
    ##  1  1976 ALABAMA AL                1        63       41 US HOUSE 001      GEN  
    ##  2  1976 ALABAMA AL                1        63       41 US HOUSE 001      GEN  
    ##  3  1976 ALABAMA AL                1        63       41 US HOUSE 001      GEN  
    ##  4  1976 ALABAMA AL                1        63       41 US HOUSE 002      GEN  
    ##  5  1976 ALABAMA AL                1        63       41 US HOUSE 002      GEN  
    ##  6  1976 ALABAMA AL                1        63       41 US HOUSE 002      GEN  
    ##  7  1976 ALABAMA AL                1        63       41 US HOUSE 003      GEN  
    ##  8  1976 ALABAMA AL                1        63       41 US HOUSE 003      GEN  
    ##  9  1976 ALABAMA AL                1        63       41 US HOUSE 003      GEN  
    ## 10  1976 ALABAMA AL                1        63       41 US HOUSE 004      GEN  
    ## # ℹ 32,442 more rows
    ## # ℹ 11 more variables: runoff <lgl>, special <lgl>, candidate <chr>,
    ## #   party <chr>, writein <lgl>, mode <chr>, candidatevotes <dbl>,
    ## #   totalvotes <dbl>, unofficial <lgl>, version <dbl>, fusion_ticket <lgl>
…
